<?xml version="1.0" encoding="UTF-8" standalone="no"?>
<svg
   xmlns:dc="http://purl.org/dc/elements/1.1/"
   xmlns:cc="http://creativecommons.org/ns#"
   xmlns:rdf="http://www.w3.org/1999/02/22-rdf-syntax-ns#"
   xmlns:svg="http://www.w3.org/2000/svg"
   xmlns="http://www.w3.org/2000/svg"
   xmlns:sodipodi="http://sodipodi.sourceforge.net/DTD/sodipodi-0.dtd"
   xmlns:inkscape="http://www.inkscape.org/namespaces/inkscape"
   width="170"
   height="205"
   version="1.1"
   id="svg919"
   sodipodi:docname="adv1.svg"
   inkscape:version="0.92.3 (2405546, 2018-03-11)">
  <metadata
     id="metadata925">
    <rdf:RDF>
      <cc:Work
         rdf:about="">
        <dc:format>image/svg+xml</dc:format>
        <dc:type
           rdf:resource="http://purl.org/dc/dcmitype/StillImage" />
      </cc:Work>
    </rdf:RDF>
  </metadata>
  <defs
     id="defs923" />
  <sodipodi:namedview
     pagecolor="#ffffff"
     bordercolor="#666666"
     borderopacity="1"
     objecttolerance="10"
     gridtolerance="10"
     guidetolerance="10"
     inkscape:pageopacity="0"
     inkscape:pageshadow="2"
     inkscape:window-width="1536"
     inkscape:window-height="801"
     id="namedview921"
     showgrid="false"
     inkscape:zoom="3.0829268"
     inkscape:cx="39.806171"
     inkscape:cy="115.47468"
     inkscape:window-x="-8"
     inkscape:window-y="-8"
     inkscape:window-maximized="1"
     inkscape:current-layer="svg919" />
  <style
     type="text/css"
     id="style854">.st0{fill:#CCE5F5;}
	.st1{fill:#F6F5F6;}
	.st2{fill:none;stroke:#3B4252;stroke-width:2;stroke-miterlimit:10;}
	.st3{fill:#DDDFE1;}
	.st4{fill:#DCE8C7;}
	.st5{fill:none;stroke:#3B4252;stroke-width:4;stroke-miterlimit:10;}
	.st6{fill:#3B4252;}
	.st7{fill:#CE5E4F;}</style>
  <g
     id="g859">
    <title
       id="title856">background</title>
    <rect
       id="canvas_background"
       height="207"
       width="152"
       y="-1"
       x="-1"
       style="fill:none" />
  </g>
  <g
     id="g917"
     transform="translate(10.007683,16.96784)">
    <title
       id="title861">Layer 1</title>
    <g
       stroke="null"
       id="svg_1">
      <g
         stroke="null"
         id="svg_2">
        <g
           stroke="null"
           id="svg_3">
          <rect
             stroke="null"
             id="svg_4"
             height="82"
             width="106"
             class="st0"
             transform="matrix(0,0.77930065,-0.77930065,0,609.44202,-122.23407)"
             y="592.78711"
             x="248.90988"
             style="fill:#cce5f5" />
          <g
             stroke="null"
             id="svg_5">
            <rect
               stroke="null"
               id="svg_6"
               height="7.7930069"
               width="51.433842"
               class="st1"
               y="76.371468"
               x="88.240433"
               style="fill:#f6f5f6" />
          </g>
          <g
             stroke="null"
             id="svg_7">
            <rect
               stroke="null"
               id="svg_8"
               height="7.7930069"
               width="51.433842"
               class="st1"
               y="88.840279"
               x="88.240433"
               style="fill:#f6f5f6" />
          </g>
          <g
             stroke="null"
             id="svg_9">
            <rect
               stroke="null"
               id="svg_10"
               height="7.7930069"
               width="32.730625"
               class="st1"
               y="126.24671"
               x="88.240433"
               style="fill:#f6f5f6" />
          </g>
          <g
             stroke="null"
             id="svg_11">
            <rect
               stroke="null"
               id="svg_12"
               height="7.7930069"
               width="32.730625"
               class="st1"
               y="138.71552"
               x="88.240433"
               style="fill:#f6f5f6" />
          </g>
          <rect
             stroke="null"
             id="svg_13"
             height="20.261818"
             width="51.433842"
             class="st1"
             y="101.30909"
             x="88.240433"
             style="fill:#f6f5f6" />
          <rect
             stroke="null"
             id="svg_14"
             height="20.261818"
             width="14.027412"
             class="st1"
             y="126.24671"
             x="125.64686"
             style="fill:#f6f5f6" />
          <rect
             id="svg_15"
             height="85.723068"
             width="67.019859"
             class="st2"
             y="68.578461"
             x="80.447418"
             style="fill:none;stroke:#3b4252;stroke-width:2;stroke-miterlimit:10" />
        </g>
        <g
           stroke="null"
           id="svg_16">
          <rect
             stroke="null"
             id="svg_17"
             height="82"
             width="106"
             class="st3"
             transform="matrix(0,0.77930065,-0.77930065,0,531.50416,-44.296208)"
             y="592.78711"
             x="148.90988"
             style="fill:#dddfe1" />
          <g
             stroke="null"
             id="svg_18">
            <rect
               stroke="null"
               id="svg_19"
               height="7.7930069"
               width="14.027412"
               class="st1"
               y="76.371468"
               x="47.716797"
               style="fill:#f6f5f6" />
          </g>
          <g
             stroke="null"
             id="svg_20">
            <rect
               stroke="null"
               id="svg_21"
               height="7.7930069"
               width="14.027412"
               class="st1"
               y="88.840279"
               x="47.716797"
               style="fill:#f6f5f6" />
          </g>
          <g
             stroke="null"
             id="svg_22">
            <rect
               stroke="null"
               id="svg_23"
               height="7.7930069"
               width="14.806712"
               class="st1"
               y="126.24671"
               x="28.234278"
               style="fill:#f6f5f6" />
          </g>
          <g
             stroke="null"
             id="svg_24">
            <rect
               stroke="null"
               id="svg_25"
               height="7.7930069"
               width="14.806712"
               class="st1"
               y="138.71552"
               x="28.234278"
               style="fill:#f6f5f6" />
          </g>
          <rect
             stroke="null"
             id="svg_26"
             height="20.261818"
             width="33.50993"
             class="st1"
             y="101.30909"
             x="28.234278"
             style="fill:#f6f5f6" />
          <rect
             stroke="null"
             id="svg_27"
             height="20.261818"
             width="33.50993"
             class="st1"
             y="77.150764"
             x="10.310363"
             style="fill:#f6f5f6" />
          <rect
             stroke="null"
             id="svg_28"
             height="20.261818"
             width="14.027412"
             class="st1"
             y="126.24671"
             x="47.716797"
             style="fill:#f6f5f6" />
          <rect
             stroke="null"
             id="svg_29"
             height="20.261818"
             width="14.027412"
             class="st1"
             y="101.30909"
             x="10.310363"
             style="fill:#f6f5f6" />
          <rect
             stroke="null"
             id="svg_30"
             height="20.261818"
             width="14.027412"
             class="st1"
             y="126.24671"
             x="10.310363"
             style="fill:#f6f5f6" />
          <rect
             id="svg_31"
             height="85.723068"
             width="67.019859"
             class="st2"
             y="68.578461"
             x="2.5173571"
             style="fill:none;stroke:#3b4252;stroke-width:2;stroke-miterlimit:10" />
        </g>
        <g
           stroke="null"
           id="svg_32">
          <rect
             stroke="null"
             id="svg_33"
             height="98"
             width="122"
             class="st1"
             transform="matrix(0,0.77930065,-0.77930065,0,584.5019,-66.118808)"
             y="604.78711"
             x="188.90988"
             style="fill:#f6f5f6" />
          <rect
             stroke="null"
             id="svg_34"
             height="82"
             width="106"
             class="st4"
             transform="matrix(0,0.77930065,-0.77930065,0,589.17817,-66.118808)"
             y="615.78711"
             x="199.90988"
             style="fill:#dce8c7" />
          <g
             stroke="null"
             id="svg_35">
            <rect
               stroke="null"
               id="svg_36"
               height="20.261818"
               width="32.730625"
               class="st1"
               y="93.516083"
               x="49.275394"
               style="fill:#f6f5f6" />
          </g>
          <rect
             stroke="null"
             id="svg_37"
             height="20.261818"
             width="14.027412"
             class="st1"
             y="93.516083"
             x="86.681824"
             style="fill:#f6f5f6" />
          <rect
             stroke="null"
             id="svg_38"
             height="20.261818"
             width="14.027412"
             class="st1"
             y="118.4537"
             x="49.275394"
             style="fill:#f6f5f6" />
          <g
             stroke="null"
             id="svg_39">
            <rect
               stroke="null"
               id="svg_40"
               height="20.261818"
               width="32.730625"
               class="st1"
               y="118.4537"
               x="67.978615"
               style="fill:#f6f5f6" />
          </g>
          <g
             stroke="null"
             id="svg_41">
            <rect
               stroke="null"
               id="svg_42"
               height="20.261818"
               width="14.027412"
               class="st1"
               y="143.39133"
               x="49.275394"
               style="fill:#f6f5f6" />
          </g>
          <rect
             stroke="null"
             id="svg_43"
             height="20.261818"
             width="14.027412"
             class="st1"
             y="143.39133"
             x="67.978615"
             style="fill:#f6f5f6" />
          <rect
             stroke="null"
             id="svg_44"
             height="20.261818"
             width="14.027412"
             class="st1"
             y="143.39133"
             x="86.681824"
             style="fill:#f6f5f6" />
          <rect
             id="svg_45"
             height="85.723068"
             width="67.019859"
             class="st5"
             y="85.723076"
             x="41.482391"
             style="fill:none;stroke:#3b4252;stroke-width:4;stroke-miterlimit:10" />
        </g>
        <g
           stroke="null"
           id="svg_46">
          <path
             id="svg_47"
             d="m 113.95735,58.447551 v -6.234405 c 0,-2.571692 -2.10411,-4.675804 -4.6758,-4.675804 H 79.668121 c -2.571692,0 -4.675804,2.104112 -4.675804,4.675804 v 7.793007"
             class="st2"
             inkscape:connector-curvature="0"
             style="fill:none;stroke:#3b4252;stroke-width:2;stroke-miterlimit:10" />
          <polygon
             stroke="null"
             id="svg_48"
             points="78.888809,55.330344 74.992302,63.123344 71.095795,55.330344 "
             class="st6"
             style="fill:#3b4252" />
        </g>
        <g
           stroke="null"
           id="svg_49">
          <path
             id="svg_50"
             d="m 75.771618,176.12195 v 6.2344 c 0,2.5717 -2.104112,4.67581 -4.675804,4.67581 H 27.454977 c -2.571692,0 -4.675804,-2.10411 -4.675804,-4.67581 v -14.02741"
             class="st2"
             inkscape:connector-curvature="0"
             style="fill:none;stroke:#3b4252;stroke-width:2;stroke-miterlimit:10" />
          <polygon
             stroke="null"
             id="svg_51"
             points="26.675665,173.00476 22.779158,165.21176 18.882656,173.00476 "
             class="st6"
             style="fill:#3b4252" />
        </g>
      </g>
      <polygon
         stroke="null"
         id="svg_52"
         points="77.3302,20.261817 73.433693,28.054824 69.537193,20.261817 "
         class="st7"
         style="fill:#ce5e4f" />
      <polygon
         stroke="null"
         id="svg_53"
         points="27.454964,0 23.558458,7.793005 19.661955,0 "
         class="st0"
         style="fill:#cce5f5" />
      <polygon
         stroke="null"
         id="svg_54"
         points="48.496075,39.744334 44.599579,47.537341 40.703068,39.744334 "
         class="st4"
         style="fill:#dce8c7" />
    </g>
  </g>
</svg>
